%YAML 1.1
%TAG !u! tag:unity3d.com,2011:
--- !u!114 &-8422139868625427345
MonoBehaviour:
  m_ObjectHideFlags: 11
  m_CorrespondingSourceObject: {fileID: 0}
  m_PrefabInstance: {fileID: 0}
  m_PrefabAsset: {fileID: 0}
  m_GameObject: {fileID: 0}
  m_Enabled: 1
  m_EditorHideFlags: 0
  m_Script: {fileID: 11500000, guid: 639247ca83abc874e893eb93af2b5e44, type: 3}
  m_Name: 
  m_EditorClassIdentifier: 
  version: 0
--- !u!114 &-8225135549503103636
MonoBehaviour:
  m_ObjectHideFlags: 11
  m_CorrespondingSourceObject: {fileID: 0}
  m_PrefabInstance: {fileID: 0}
  m_PrefabAsset: {fileID: 0}
  m_GameObject: {fileID: 0}
  m_Enabled: 1
  m_EditorHideFlags: 0
  m_Script: {fileID: 11500000, guid: da692e001514ec24dbc4cca1949ff7e8, type: 3}
  m_Name: 
  m_EditorClassIdentifier: 
  version: 13
  hdPluginSubTargetMaterialVersions:
    m_Keys: []
    m_Values: 
--- !u!114 &-554047174147317420
MonoBehaviour:
  m_ObjectHideFlags: 11
  m_CorrespondingSourceObject: {fileID: 0}
  m_PrefabInstance: {fileID: 0}
  m_PrefabAsset: {fileID: 0}
  m_GameObject: {fileID: 0}
  m_Enabled: 1
  m_EditorHideFlags: 0
  m_Script: {fileID: 11500000, guid: d0353a89b1f911e48b9e16bdc9f2e058, type: 3}
  m_Name: 
  m_EditorClassIdentifier: 
  version: 7
--- !u!21 &2100000
Material:
  serializedVersion: 8
  m_ObjectHideFlags: 0
  m_CorrespondingSourceObject: {fileID: 0}
  m_PrefabInstance: {fileID: 0}
  m_PrefabAsset: {fileID: 0}
  m_Name: V1_HotAirBalloon_Livery_6
  m_Shader: {fileID: 4800000, guid: 933532a4fcc9baf4fa0491de14d08ed7, type: 3}
  m_Parent: {fileID: 0}
  m_ModifiedSerializedProperties: 0
  m_ValidKeywords: []
  m_InvalidKeywords: []
  m_LightmapFlags: 4
  m_EnableInstancingVariants: 0
  m_DoubleSidedGI: 0
  m_CustomRenderQueue: -1
  stringTagMap:
    RenderType: Opaque
  disabledShaderPasses:
  - TransparentDepthPrepass
  - TransparentDepthPostpass
  - TransparentBackface
  - RayTracingPrepass
  m_LockedProperties: 
  m_SavedProperties:
    serializedVersion: 3
    m_TexEnvs:
    - _BaseMap:
        m_Texture: {fileID: 2800000, guid: 80f97b402289585449307ea267c7724d, type: 3}
        m_Scale: {x: 1, y: 1}
        m_Offset: {x: 0, y: 0}
    - _BumpMap:
        m_Texture: {fileID: 0}
        m_Scale: {x: 1, y: 1}
        m_Offset: {x: 0, y: 0}
    - _DetailAlbedoMap:
        m_Texture: {fileID: 0}
        m_Scale: {x: 1, y: 1}
        m_Offset: {x: 0, y: 0}
    - _DetailMask:
        m_Texture: {fileID: 0}
        m_Scale: {x: 1, y: 1}
        m_Offset: {x: 0, y: 0}
    - _DetailNormalMap:
        m_Texture: {fileID: 0}
        m_Scale: {x: 1, y: 1}
        m_Offset: {x: 0, y: 0}
    - _EmissionMap:
        m_Texture: {fileID: 0}
        m_Scale: {x: 1, y: 1}
        m_Offset: {x: 0, y: 0}
    - _Layer1Texture:
        m_Texture: {fileID: 2800000, guid: 60cf464809957f14784e8712ed56894c, type: 3}
        m_Scale: {x: 1, y: 1}
        m_Offset: {x: 0, y: 0}
    - _Layer2Texture:
        m_Texture: {fileID: 2800000, guid: 80f97b402289585449307ea267c7724d, type: 3}
        m_Scale: {x: 1, y: 1}
        m_Offset: {x: 0, y: 0}
    - _Layer3Texture:
        m_Texture: {fileID: 0}
        m_Scale: {x: 1, y: 1}
        m_Offset: {x: 0, y: 0}
    - _MainTex:
        m_Texture: {fileID: 2800000, guid: 80f97b402289585449307ea267c7724d, type: 3}
        m_Scale: {x: 1, y: 1}
        m_Offset: {x: 0, y: 0}
    - _MetallicGlossMap:
        m_Texture: {fileID: 0}
        m_Scale: {x: 1, y: 1}
        m_Offset: {x: 0, y: 0}
    - _OcclusionMap:
        m_Texture: {fileID: 0}
        m_Scale: {x: 1, y: 1}
        m_Offset: {x: 0, y: 0}
    - _ParallaxMap:
        m_Texture: {fileID: 0}
        m_Scale: {x: 1, y: 1}
        m_Offset: {x: 0, y: 0}
    - _SpecGlossMap:
        m_Texture: {fileID: 0}
        m_Scale: {x: 1, y: 1}
        m_Offset: {x: 0, y: 0}
    - unity_Lightmaps:
        m_Texture: {fileID: 0}
        m_Scale: {x: 1, y: 1}
        m_Offset: {x: 0, y: 0}
    - unity_LightmapsInd:
        m_Texture: {fileID: 0}
        m_Scale: {x: 1, y: 1}
        m_Offset: {x: 0, y: 0}
    - unity_ShadowMasks:
        m_Texture: {fileID: 0}
        m_Scale: {x: 1, y: 1}
        m_Offset: {x: 0, y: 0}
    m_Ints: []
    m_Floats:
    - _AddPrecomputedVelocity: 0
    - _AlphaClip: 0
    - _AlphaCutoffEnable: 0
    - _AlphaDstBlend: 0
    - _AlphaSrcBlend: 1
    - _AlphaToMask: 0
    - _BUILTIN_QueueControl: 0
    - _BUILTIN_QueueOffset: 0
    - _Blend: 0
    - _BlendMode: 0
    - _BlendModePreserveSpecular: 1
    - _BumpScale: 1
    - _ClearCoatMask: 0
    - _ClearCoatSmoothness: 0
    - _ConservativeDepthOffsetEnable: 0
    - _Cull: 2
    - _CullMode: 2
    - _CullModeForward: 2
    - _Cutoff: 0.5
    - _DepthOffsetEnable: 0
    - _DetailAlbedoMapScale: 1
    - _DetailNormalMapScale: 1
    - _DoubleSidedEnable: 0
    - _DoubleSidedGIMode: 0
    - _DoubleSidedNormalMode: 2
    - _DstBlend: 0
    - _DstBlendAlpha: 0
    - _EnableBlendModePreserveSpecularLighting: 1
    - _EnableFogOnTransparent: 1
    - _EnvironmentReflections: 1
    - _GlossMapScale: 0
    - _Glossiness: 0
    - _GlossyReflections: 0
    - _Layer1Metallic1: 0
    - _Layer1Metallic2: 0
    - _Layer1Metallic3: 0
    - _Layer1Metallic4: 0
    - _Layer1Metallic5: 0
    - _Layer1Metallic6: 0
    - _Layer1Metallic7: 0
    - _Layer1SetChannel1: 1
    - _Layer1SetChannel2: 1
    - _Layer1SetChannel3: 1
    - _Layer1SetChannel4: 1
    - _Layer1SetChannel5: 0
    - _Layer1SetChannel6: 0
    - _Layer1SetChannel7: 0
    - _Layer1Smoothness1: 0.3
    - _Layer1Smoothness2: 0.2
    - _Layer1Smoothness3: 0.2
    - _Layer1Smoothness4: 0.4
    - _Layer1Smoothness5: 0
    - _Layer1Smoothness6: 0
    - _Layer1Smoothness7: 0
    - _Layer2Enable: 1
    - _Layer2Smoothness: 0.4
    - _Layer2Threshold: 0.6
    - _Layer3Enable: 0
    - _Layer3Smoothness: 0
    - _Layer3Threshold: 0
    - _Metallic: 0
    - _OcclusionStrength: 1
    - _OpaqueCullMode: 2
    - _Parallax: 0.005
    - _QueueControl: 0
    - _QueueOffset: 0
    - _RayTracing: 0
    - _ReceiveShadows: 1
    - _ReceivesSSR: 1
    - _ReceivesSSRTransparent: 0
    - _RefractionModel: 0
    - _RenderQueueType: 1
    - _RequireSplitLighting: 0
    - _Smoothness: 0.408
    - _SmoothnessTextureChannel: 0
    - _SpecularHighlights: 1
    - _SrcBlend: 1
    - _SrcBlendAlpha: 1
    - _StencilRef: 0
    - _StencilRefDepth: 8
    - _StencilRefDistortionVec: 4
    - _StencilRefGBuffer: 10
    - _StencilRefMV: 40
    - _StencilWriteMask: 6
    - _StencilWriteMaskDepth: 9
    - _StencilWriteMaskDistortionVec: 4
    - _StencilWriteMaskGBuffer: 15
    - _StencilWriteMaskMV: 41
    - _SupportDecals: 1
    - _Surface: 0
    - _SurfaceType: 0
    - _TransparentBackfaceEnable: 0
    - _TransparentCullMode: 2
    - _TransparentDepthPostpassEnable: 0
    - _TransparentDepthPrepassEnable: 0
    - _TransparentSortPriority: 0
    - _TransparentWritingMotionVec: 0
    - _TransparentZWrite: 0
    - _UseShadowThreshold: 0
    - _WorkflowMode: 1
    - _ZTestDepthEqualForOpaque: 3
    - _ZTestGBuffer: 4
    - _ZTestTransparent: 4
    - _ZWrite: 1
    m_Colors:
    - _BaseColor: {r: 1, g: 1, b: 1, a: 1}
    - _Color: {r: 1, g: 1, b: 1, a: 1}
    - _DoubleSidedConstants: {r: 1, g: 1, b: -1, a: 0}
    - _EmissionColor: {r: 1, g: 1, b: 1, a: 1}
    - _Layer1NewColor1: {r: 1, g: 1, b: 1, a: 0}
    - _Layer1NewColor2: {r: 0.7058824, g: 0.7058824, b: 0.7058824, a: 0}
    - _Layer1NewColor3: {r: 0.50980395, g: 0.50980395, b: 0.50980395, a: 0}
    - _Layer1NewColor4: {r: 0.19607843, g: 0.19607843, b: 0.19607843, a: 0}
    - _Layer1NewColor5: {r: 0, g: 1, b: 1, a: 0}
    - _Layer1NewColor6: {r: 1, g: 0, b: 1, a: 0}
    - _Layer1NewColor7: {r: 1, g: 1, b: 0, a: 0}
    - _Layer2NewColor1: {r: 0, g: 0.3137255, b: 1, a: 0}
    - _Layer2NewColor2: {r: 1, g: 1, b: 1, a: 0}
    - _Layer2NewColor3: {r: 0.8039216, g: 0.11764706, b: 0.5686275, a: 0}
    - _Layer2NewColor4: {r: 0, g: 0, b: 0, a: 0}
    - _Layer3NewColor1: {r: 0, g: 0, b: 0, a: 0}
    - _Layer3NewColor2: {r: 0, g: 0, b: 0, a: 0}
    - _Layer3NewColor3: {r: 0, g: 0, b: 0, a: 0}
    - _Layer3NewColor4: {r: 0, g: 0, b: 0, a: 0}
    - _SpecColor: {r: 0.2, g: 0.2, b: 0.2, a: 1}
  m_BuildTextureStacks: []
